%YAML 1.1
%TAG !u! tag:unity3d.com,2011:
--- !u!114 &11400000
MonoBehaviour:
  m_ObjectHideFlags: 0
  m_CorrespondingSourceObject: {fileID: 0}
  m_PrefabInstance: {fileID: 0}
  m_PrefabAsset: {fileID: 0}
  m_GameObject: {fileID: 0}
  m_Enabled: 1
  m_EditorHideFlags: 0
  m_Script: {fileID: 11500000, guid: 9f5a88bbe55c90847bac58c31a16ce5f, type: 3}
  m_Name: Level1
  m_EditorClassIdentifier: 
  difficulty: 1
  clicksCount: 5
  requireTime: 30
  clickObject: {fileID: -6761235536228063512, guid: 0bef5a5bf8185864aa5f58989cc27c96, type: 3}
  backgroundObject: {fileID: 212085882148136233, guid: f31d1bc87b5a05c4d92014f5267b0baf, type: 3}
